{
    "users": [
        {
            "username": "admin",
            "studio": "vapsquad",
            "kind": "admin",
            "gender": "godlike"
        },
        {
            "username": "evius",
            "studio": "vapsquad",
            "kind": "actor",
            "gender": "male"
        },
        {
            "username": "charles",
            "studio": "Coffee Addict Studio",
            "kind": "creator",
            "gender": "male"
        },
        {
            "username": "ThatGuyIMetOnce",
            "studio": "A One Games",
            "kind": "creator",
            "gender": "male"
        }
    ],
    "auditions": [

    ],
    "projects": [
        {
            "name": "Hazel Sky",
            "description": "Hazel Sky is a game about a boy trying to go back to his home in a floating city. Everyone that wants to become a engineer goes through that in this world, the entire society is devided into Artist(Really poor) and Engineers(Rich). The entire game is while you resolve really light puzzles like the game Inside (Main inspiration for the mechanics) the boy finding out that he realy is a musican, a much hated artist, the game deals with prejudice from many perspectives",
            "author": 2,
            "parts": [
                {
                    "characterName": "Erin",
                    "characterProfile": "Girly, not too cartoony",
                    "voiceType": "Deep, serene, enigmatic",
                    "age": "13",
                    "accent": "N. American",
                    "notes": "",
                    "characterReference": "Moonrise Kingdom",
                    "lines": [
                        {
                            "text": "Yeah! That’s great, I haven’t talk to someone for months.",
                            "context": "longing, etc",
                            "file_name": ""
                        }
                    ]  
                },
                {
                    "characterName": "Shane",
                    "characterProfile": "Young, slow, cool talker",
                    "voiceType": "Deep, serene, enigmatic",
                    "age": "12",
                    "accent": "N. American",
                    "notes": "",
                    "characterReference": "Moonrise Kingdom",
                    "lines": [
                        {
                            "text": "I need to be faster than that. We are in need of engineers right?",
                            "context": "excited, etc",
                            "file_name": ""
                        }
                    ]  
                }
            ]
        },
        {
            "name": "Omen Of Sorrow",
            "description": "",
            "author": 3,
            "parts": [
                {
                    "characterName": "Arctorious",
                    "characterProfile": "Noble, ancient, mysterious",
                    "voiceType": "Deep, serene, enigmatic",
                    "age": "999",
                    "accent": "Welsh",
                    "notes": "",
                    "characterReference": "http://some.youtube.link",
                    "lines": [
                        {
                            "text": "Relent!",
                            "context": "throws a powerful swipe directly in front of him",
                            "file_name": ""
                        },
                        {
                            "text": "Avalon, guide me!",
                            "context": "Arctorious activates a powered state",
                            "file_name": ""
                        },
                        {
                            "text": "<Attack Sound>",
                            "context": "Large effort (Medium. About .6 seconds)",
                            "file_name": ""
                        }
                    ]  
                },
                {
                    "characterName": "Quasimodo, the Watcher",
                    "characterProfile": "Pessimistic, skittish, angry",
                    "voiceType": "Nervous, defensive, jittery",
                    "age": "250",
                    "accent": "French",
                    "notes": "",
                    "characterReference": "http://some.otheryoutube.link",
                    "lines": [
                        {
                            "text": "Back off!",
                            "context": "shoots his harpoon towards is opponent",
                            "file_name": ""
                        },
                        {
                            "text": "For Esmeralda!",
                            "context": "activates a powered state",
                            "file_name": ""
                        },
                        {
                            "text": "<Cry Of Pain>",
                            "context": "screams out in agony as he receives terrible damage",
                            "file_name": ""
                        }

                    ]  
                }
            ]
        }
    ],
    "comments": [

    ]
}